{
    "project": null,

    "cli": true,
    "web": true,

    "db": true,
    "files": true,
    "settings": true,

    "readme": true,
    "tests": true,
    "repo": true,
    "linter": true,

    "config": false,
    "save": false,
    "interactive": false
}
